<?xml version="1.0" encoding="utf-8"?>
<!-- Generator: Adobe Illustrator 15.1.0, SVG Export Plug-In . SVG Version: 6.00 Build 0)  -->
<!DOCTYPE svg PUBLIC "-//W3C//DTD SVG 1.1//EN" "http://www.w3.org/Graphics/SVG/1.1/DTD/svg11.dtd">
<svg version="1.1" id="Capa_1" xmlns="http://www.w3.org/2000/svg" xmlns:xlink="http://www.w3.org/1999/xlink" x="0px" y="0px"
	 width="17.958px" height="17.958px" viewBox="494.042 494.042 17.958 17.958"
	 enable-background="new 494.042 494.042 17.958 17.958" xml:space="preserve">
<g>
	<g>
		<path fill="#C6C6C6" d="M503.008,494.015c-4.967,0-8.993,4.026-8.993,8.993c0,4.966,4.026,8.992,8.993,8.992
			c4.966,0,8.992-4.026,8.992-8.992C512,498.041,507.974,494.015,503.008,494.015z M503.008,511.262
			c-4.56,0-8.255-3.695-8.255-8.254c0-4.56,3.695-8.255,8.255-8.255c4.559,0,8.254,3.695,8.254,8.255
			C511.262,507.566,507.567,511.262,503.008,511.262z"/>
		<path fill="#C6C6C6" d="M505.464,504.771c-0.563-0.096-1.332-0.641-1.332-0.878v-0.598c0-0.224,0.301-0.641,0.43-1.023
			c0.012-0.036,0.089,0.005,0.164-0.088c0.142-0.173,0.162-0.439,0.195-0.56c0.053-0.189-0.179-0.197-0.179-0.197
			s0.172-0.997,0.02-1.626c-0.206-0.857-1.317-1.289-1.753-1.289c-0.435,0-1.544,0.432-1.751,1.289
			c-0.153,0.629,0.023,1.626,0.023,1.626s-0.223,0.008-0.172,0.197c0.033,0.12,0.068,0.387,0.211,0.56
			c0.075,0.093,0.121,0.052,0.133,0.088c0.129,0.383,0.43,0.8,0.43,1.023v0.598c0,0.237-0.77,0.782-1.332,0.878
			c-0.722,0.123-1.078,0.622-0.909,1.866c0.085,0.621,1.726,0.889,3.35,0.866c1.624,0.022,3.289-0.245,3.374-0.866
			C506.534,505.393,506.186,504.894,505.464,504.771z"/>
	</g>
</g>
</svg>
